Shiwani Sapkota: Data Analysis Portfolio - Machine Learning
…
# Tuning the model using tune_grid() function
res_lasso <- wf_lasso %>% tune_grid(resamples = CV_fold_data, grid = lasso_grid,
    control = control_grid(verbose = FALSE, save_pred = TRUE), metrics = NULL)

res_lasso %>% collect_metrics()

# A tibble: 60 × 7
    penalty .metric .estimator   mean     n std_err .config              
      <dbl> <chr>   <chr>       <dbl> <int>   <dbl> <chr>                
 1 0.0001   rmse    standard   1.18      25 0.0167  Preprocessor1_Model01
 2 0.0001   rsq     standard   0.0819    25 0.00875 Preprocessor1_Model01
 3 0.000127 rmse    standard   1.18      25 0.0167  Preprocessor1_Model02
 4 0.000127 rsq     standard   0.0819    25 0.00875 Preprocessor1_Model02
 5 0.000161 rmse    standard   1.18      25 0.0167  Preprocessor1_Model03
 6 0.000161 rsq     standard   0.0819    25 0.00875 Preprocessor1_Model03
 7 0.000204 rmse    standard   1.18      25 0.0167  Preprocessor1_Model04
 8 0.000204 rsq     standard   0.0819    25 0.00875 Preprocessor1_Model04
 9 0.000259 rmse    standard   1.18      25 0.0167  Preprocessor1_Model05
10 0.000259 rsq     standard   0.0819    25 0.00875 Preprocessor1_Model05
# … with 50 more rows
…
